FIFO_VIP/fifo.vcd
$date
	Sat Dec 10 00:57:43 2016
$end

$version
	Synopsys VCS version I-2014.03-2
$end

$timescale
	1ns
$end

$comment Csum: 1 2665dee67cdde13c $end


$scope module fifo_top $end
$var reg 1 ! clk $end
$var reg 1 " rst $end
$var reg 32 # delay [31:0] $end

$scope module fifo_if $end
$var reg 1 $ clk $end
$var reg 1 % rst $end
$var reg 1 & push $end
$var reg 1 ' full $end
$var reg 9 ( datain [8:0] $end
$var reg 1 ) pull $end
$var reg 1 * empty $end
$var reg 9 + dataout [8:0] $end
$var reg 1 , assertion_check $end
$var reg 32 - cnt [31:0] $end
$var reg 32 . empty_cnt [31:0] $end
$var reg 1 / full_flag $end
$var reg 1 0 empty_flag $end

$scope task _$$txp______assert_Write_when_Not_full $end
$upscope $end


$scope task _$$txp______assert_Read_when_Not_empty $end
$upscope $end


$scope task _$$txp______assert_full_not_equals_full_flag $end
$upscope $end


$scope task _$$txp______assert_empty_not_equals_empty_flag $end
$upscope $end


$scope task _$$txp_fail_action_Write_when_Not_full $end
$upscope $end


$scope task _$$txp_fail_action_Read_when_Not_empty $end
$upscope $end


$scope task _$$txp_fail_action_full_not_equals_full_flag $end
$upscope $end


$scope task _$$txp_fail_action_empty_not_equals_empty_flag $end
$upscope $end

$upscope $end


$scope module fifo_inst $end
$var reg 32 1 h [31:0] $end
$var reg 32 2 h_d [31:0] $end
$var reg 32 3 t [31:0] $end
$var reg 32 4 t_d [31:0] $end
$var reg 32 5 numloaded [31:0] $end
$var reg 32 6 numloaded_d [31:0] $end
$var reg 1 7 empt $end
$var reg 1 8 ful $end

$scope function nextv $end
$var reg 32 9 nextv [31:0] $end
$var reg 32 : iv [31:0] $end
$var reg 32 ; rv [31:0] $end
$upscope $end

$upscope $end

$upscope $end

$enddefinitions $end

#0
$dumpvars
1!
17
08
1"
b00000000000000000000000000000000 3
b00000000000000000000000000000000 1
b00000000000000000000000000000000 2
bxxxxxxxxxxxxxxxxxxxxxxxxxxxxxxxx :
bxxxxxxxxxxxxxxxxxxxxxxxxxxxxxxxx 9
bxxxxxxxxxxxxxxxxxxxxxxxxxxxxxxxx ;
b00000000000000000000000000000000 5
b00000000000000000000000000000000 6
b00000000000000000000000000000000 4
b00000000000000000000000000000000 #
10
0/
1*
0)
0'
0&
1%
1$
1,
bxxxxxxxxx +
b000000000 (
b00000000000000000000000000000000 .
b00000000000000000000000000000000 -
$end
#5
0!
0$
#10
1!
1$
#15
0!
0$
#20
1!
1$
#25
0!
0$
#30
1!
1$
#35
0!
0$
#40
1!
1$
#45
0!
0$
#50
0"
0%
b00000000000000000000000000000101 #
1!
1$
#55
0!
0$
#60
1!
1$
1&
b00000000000000000000000000000001 6
b00000000000000000000000000000001 2
b00000000000000000000000000000001 9
b00000000000000000000000000000001 ;
b00000000000000000000000000000000 :
#65
0!
0$
#70
1!
1$
0&
b00000000000000000000000000000000 2
b00000000000000000000000000000000 6
#71
b00000000000000000000000000000001 -
00
b00000000000000000000000000000001 1
b00000000000000000000000000000001 5
b00000000000000000000000000000001 2
b00000000000000000000000000000001 6
0*
07
b000000000 +
#75
0!
0$
#80
1!
1$
b000101101 (
1&
b00000000000000000000000000000010 6
b00000000000000000000000000000010 2
b00000000000000000000000000000010 9
b00000000000000000000000000000010 ;
b00000000000000000000000000000001 :
#85
0!
0$
#90
1!
1$
0&
b00000000000000000000000000000001 2
b00000000000000000000000000000001 6
#91
b00000000000000000000000000000010 -
b00000000000000000000000000000010 1
b00000000000000000000000000000010 5
b00000000000000000000000000000010 2
b00000000000000000000000000000010 6
#95
0!
0$
#100
1!
1$
b001111111 (
1&
b00000000000000000000000000000011 6
b00000000000000000000000000000011 2
b00000000000000000000000000000011 9
b00000000000000000000000000000011 ;
b00000000000000000000000000000010 :
#105
0!
0$
#110
1!
1$
0&
b00000000000000000000000000000010 2
b00000000000000000000000000000010 6
#111
b00000000000000000000000000000011 -
b00000000000000000000000000000011 1
b00000000000000000000000000000011 5
b00000000000000000000000000000011 2
b00000000000000000000000000000011 6
#115
0!
0$
#120
1!
1$
b000101001 (
1&
b00000000000000000000000000000100 6
b00000000000000000000000000000100 2
b00000000000000000000000000000100 9
b00000000000000000000000000000100 ;
b00000000000000000000000000000011 :
#125
0!
0$
#130
1!
1$
0&
b00000000000000000000000000000011 2
b00000000000000000000000000000011 6
#131
b00000000000000000000000000000100 -
b00000000000000000000000000000100 1
b00000000000000000000000000000100 5
b00000000000000000000000000000100 2
b00000000000000000000000000000100 6
#135
0!
0$
#140
1!
1$
b101110001 (
1&
b00000000000000000000000000000101 6
b00000000000000000000000000000101 2
b00000000000000000000000000000101 9
b00000000000000000000000000000101 ;
b00000000000000000000000000000100 :
#145
0!
0$
#150
1!
1$
0&
b00000000000000000000000000000100 2
b00000000000000000000000000000100 6
#151
b00000000000000000000000000000101 -
b00000000000000000000000000000101 1
b00000000000000000000000000000101 5
b00000000000000000000000000000101 2
b00000000000000000000000000000101 6
#155
0!
0$
#160
1!
1$
b100111010 (
1&
b00000000000000000000000000000110 6
b00000000000000000000000000000110 2
b00000000000000000000000000000110 9
b00000000000000000000000000000110 ;
b00000000000000000000000000000101 :
#165
0!
0$
#170
1!
1$
0&
b00000000000000000000000000000101 2
b00000000000000000000000000000101 6
#171
b00000000000000000000000000000110 -
b00000000000000000000000000000110 1
b00000000000000000000000000000110 5
b00000000000000000000000000000110 2
b00000000000000000000000000000110 6
#175
0!
0$
#180
1!
1$
b010111101 (
1&
b00000000000000000000000000000111 6
b00000000000000000000000000000111 2
b00000000000000000000000000000111 9
b00000000000000000000000000000111 ;
b00000000000000000000000000000110 :
#185
0!
0$
#190
1!
1$
0&
b00000000000000000000000000000110 2
b00000000000000000000000000000110 6
#191
b00000000000000000000000000000111 -
b00000000000000000000000000000111 1
b00000000000000000000000000000111 5
b00000000000000000000000000000111 2
b00000000000000000000000000000111 6
#195
0!
0$
#200
1!
1$
b100101111 (
1&
b00000000000000000000000000001000 6
b00000000000000000000000000000000 2
b00000000000000000000000000000000 9
b00000000000000000000000000000000 ;
b00000000000000000000000000000111 :
#205
0!
0$
#210
1!
1$
0&
b00000000000000000000000000000111 2
b00000000000000000000000000000111 6
#211
b00000000000000000000000000001000 -
1/
b00000000000000000000000000000000 1
b00000000000000000000000000001000 5
b00000000000000000000000000000000 2
b00000000000000000000000000001000 6
1'
18
#215
0!
0$
#220
1!
1$
b011111101 (
1&
#225
0!
0$
#230
1!
1$
0&
#235
0!
0$
#240
1!
1$
b001010011 (
1&
#245
0!
0$
#250
1!
1$
0&
#255
0!
0$
#260
1!
1$
b000011011 (
1&
#265
0!
0$
#270
1!
1$
0&
#275
0!
0$
#280
1!
1$
b111010010 (
1&
#285
0!
0$
#290
1!
1$
0&
#295
0!
0$
#300
1!
1$
b011011010 (
1&
#305
0!
0$
#310
1!
1$
0&
#315
0!
0$
#320
1!
1$
b000000001 (
1&
#325
0!
0$
#330
1!
1$
0&
#335
0!
0$
#340
1!
1$
b100000001 (
1&
#345
0!
0$
#350
1!
1$
0&
#355
0!
0$
#360
1!
1$
b100111001 (
1&
#365
0!
0$
#370
1!
1$
0&
#375
0!
0$
#380
1!
1$
b100011011 (
1&
#385
0!
0$
#390
1!
1$
0&
#395
0!
0$
#400
1!
1$
b100100101 (
1&
#405
0!
0$
#410
1!
1$
0&
#415
0!
0$
#420
1!
1$
b010100110 (
1&
#425
0!
0$
#430
1!
1$
0&
#435
0!
0$
#440
1!
1$
b011011010 (
1&
#445
0!
0$
#450
1!
1$
0&
#455
0!
0$
#460
1!
1$
b101101011 (
1&
#465
0!
0$
#470
1!
1$
0&
#475
0!
0$
#480
1!
1$
b101110101 (
1&
#485
0!
0$
#490
1!
1$
0&
#495
0!
0$
#500
1!
1$
b001011100 (
1&
#505
0!
0$
#510
1!
1$
0&
#515
0!
0$
#520
1!
1$
b010111100 (
1&
#525
0!
0$
#530
1!
1$
0&
#535
0!
0$
#540
1!
1$
b101000010 (
1&
#545
0!
0$
#550
1!
1$
0&
#555
0!
0$
#560
1!
1$
b011101001 (
1&
#565
0!
0$
#570
1!
1$
0&
#575
0!
0$
#580
1!
1$
b010100010 (
1&
#585
0!
0$
#590
1!
1$
0&
#595
0!
0$
#600
1!
1$
b111100100 (
1&
#605
0!
0$
#610
1!
1$
0&
#615
0!
0$
#620
1!
1$
b010001111 (
1&
#625
0!
0$
#630
1!
1$
0&
#635
0!
0$
#640
1!
1$
b000011100 (
1&
#645
0!
0$
#650
1!
1$
0&
#655
0!
0$
#660
1!
1$
b011011101 (
1&
#665
0!
0$
#670
1!
1$
0&
#675
0!
0$
#680
1!
1$
b110101010 (
1&
#685
0!
0$
#690
1!
1$
0&
#695
0!
0$
#700
1!
1$
b111100000 (
1&
#705
0!
0$
#710
1!
1$
0&
#715
0!
0$
#720
1!
1$
b000001001 (
1&
#725
0!
0$
#730
1!
1$
0&
#735
0!
0$
#740
1!
1$
b000110100 (
1&
#745
0!
0$
#750
1!
1$
0&
#755
0!
0$
#760
1!
1$
b110100010 (
1&
#765
0!
0$
#770
1!
1$
0&
#775
0!
0$
#780
1!
1$
b001011111 (
1&
#785
0!
0$
#790
1!
1$
0&
#795
0!
0$
#800
1!
1$
b000110101 (
1&
#805
0!
0$
#810
1!
1$
0&
#815
0!
0$
#820
1!
1$
b100010000 (
1&
#825
0!
0$
#830
1!
1$
0&
#835
0!
0$
#840
1!
1$
b110010100 (
1&
#845
0!
0$
#850
1!
1$
0&
#855
0!
0$
#860
1!
1$
b110100000 (
1&
#865
0!
0$
#870
1!
1$
0&
#875
0!
0$
#880
1!
1$
b011101100 (
1&
#885
0!
0$
#890
1!
1$
0&
#895
0!
0$
#900
1!
1$
b000001100 (
1&
#905
0!
0$
#910
1!
1$
0&
#915
0!
0$
#920
1!
1$
b101100010 (
1&
#925
0!
0$
#930
1!
1$
0&
#935
0!
0$
#940
1!
1$
b001111100 (
1&
#945
0!
0$
#950
1!
1$
0&
#955
0!
0$
#960
1!
1$
b010011110 (
1&
#965
0!
0$
#970
1!
1$
0&
#975
0!
0$
#980
1!
1$
b001011111 (
1&
#985
0!
0$
#990
1!
1$
0&
#995
0!
0$
#1000
1!
1$
b110111010 (
1&
#1005
0!
0$
#1010
1!
1$
0&
#1015
0!
0$
#1020
1!
1$
b101011101 (
1&
#1025
0!
0$
#1030
1!
1$
0&
#1035
0!
0$
#1040
1!
1$
b111011010 (
1&
#1045
0!
0$
#1050
1!
1$
0&
#1055
0!
0$
#1060
1!
1$
b000011010 (
1&
#1065
0!
0$
#1070
1!
1$
0&
#1075
0!
0$
#1080
1!
1$
b110101101 (
1&
#1085
0!
0$
#1090
1!
1$
0&
#1095
0!
0$
#1100
1!
1$
b001011111 (
1&
#1105
0!
0$
#1110
1!
1$
0&
#1115
0!
0$
#1120
1!
1$
b100010110 (
1&
#1125
0!
0$
#1130
1!
1$
0&
#1135
0!
0$
#1140
1!
1$
b000110101 (
1&
#1145
0!
0$
#1150
1!
1$
0&
#1155
0!
0$
#1160
1!
1$
b001101011 (
1&
#1165
0!
0$
#1170
1!
1$
0&
#1175
0!
0$
#1180
1!
1$
b000111010 (
1&
#1185
0!
0$
#1190
1!
1$
0&
#1195
0!
0$
#1200
1!
1$
b000000101 (
1&
#1205
0!
0$
#1210
1!
1$
0&
#1215
0!
0$
#1220
1!
1$
b111010000 (
1&
#1225
0!
0$
#1230
1!
1$
0&
#1235
0!
0$
#1240
1!
1$
b011010010 (
1&
#1245
0!
0$
#1250
1!
1$
0&
#1255
0!
0$
#1260
1!
1$
b001010100 (
1&
#1265
0!
0$
#1270
1!
1$
0&
#1275
0!
0$
#1280
1!
1$
b010001101 (
1&
#1285
0!
0$
#1290
1!
1$
0&
#1295
0!
0$
#1300
1!
1$
b100010000 (
1&
#1305
0!
0$
#1310
1!
1$
0&
#1315
0!
0$
#1320
1!
1$
b100001001 (
1&
#1325
0!
0$
#1330
1!
1$
0&
#1335
0!
0$
#1340
1!
1$
b110000111 (
1&
#1345
0!
0$
#1350
1!
1$
0&
#1355
0!
0$
#1360
1!
1$
b010010000 (
1&
#1365
0!
0$
#1370
1!
1$
0&
#1375
0!
0$
#1380
1!
1$
b010100110 (
1&
#1385
0!
0$
#1390
1!
1$
0&
#1395
0!
0$
#1400
1!
1$
b111101110 (
1&
#1405
0!
0$
#1410
1!
1$
0&
#1415
0!
0$
#1420
1!
1$
b001010011 (
1&
#1425
0!
0$
#1430
1!
1$
0&
#1435
0!
0$
#1440
1!
1$
b111010101 (
1&
#1445
0!
0$
#1450
1!
1$
0&
#1455
0!
0$
#1460
1!
1$
b001110010 (
1&
#1465
0!
0$
#1470
1!
1$
0&
#1475
0!
0$
#1480
1!
1$
b111010101 (
1&
#1485
0!
0$
#1490
1!
1$
0&
#1495
0!
0$
#1500
1!
1$
b000000001 (
1&
#1505
0!
0$
#1510
1!
1$
0&
#1515
0!
0$
#1520
1!
1$
b001001010 (
1&
#1525
0!
0$
#1530
1!
1$
0&
#1535
0!
0$
#1540
1!
1$
b110110111 (
1&
#1545
0!
0$
#1550
1!
1$
0&
#1555
0!
0$
#1560
1!
1$
b110011011 (
1&
#1565
0!
0$
#1570
1!
1$
0&
#1575
0!
0$
#1580
1!
1$
b010101111 (
1&
#1585
0!
0$
#1590
1!
1$
0&
#1595
0!
0$
#1600
1!
1$
b111011111 (
1&
#1605
0!
0$
#1610
1!
1$
0&
#1615
0!
0$
#1620
1!
1$
b000100000 (
1&
#1625
0!
0$
#1630
1!
1$
0&
#1635
0!
0$
#1640
1!
1$
b110111010 (
1&
#1645
0!
0$
#1650
1!
1$
0&
#1655
0!
0$
#1660
1!
1$
b001110111 (
1&
#1665
0!
0$
#1670
1!
1$
0&
#1675
0!
0$
#1680
1!
1$
b110110010 (
1&
#1685
0!
0$
#1690
1!
1$
0&
#1695
0!
0$
#1700
1!
1$
b100100110 (
1&
#1705
0!
0$
#1710
1!
1$
0&
#1715
0!
0$
#1720
1!
1$
b101111101 (
1&
#1725
0!
0$
#1730
1!
1$
0&
#1735
0!
0$
#1740
1!
1$
b101000010 (
1&
#1745
0!
0$
#1750
1!
1$
0&
#1755
0!
0$
#1760
1!
1$
b001100100 (
1&
#1765
0!
0$
#1770
1!
1$
0&
#1775
0!
0$
#1780
1!
1$
b110000010 (
1&
#1785
0!
0$
#1790
1!
1$
0&
#1795
0!
0$
#1800
1!
1$
b100010011 (
1&
#1805
0!
0$
#1810
1!
1$
0&
#1815
0!
0$
#1820
1!
1$
b111110110 (
1&
#1825
0!
0$
#1830
1!
1$
0&
#1835
0!
0$
#1840
1!
1$
b110110111 (
1&
#1845
0!
0$
#1850
1!
1$
0&
#1855
0!
0$
#1860
1!
1$
b011111110 (
1&
#1865
0!
0$
#1870
1!
1$
0&
#1875
0!
0$
#1880
1!
1$
b100001101 (
1&
#1885
0!
0$
#1890
1!
1$
0&
#1895
0!
0$
#1900
1!
1$
b001001010 (
1&
#1905
0!
0$
#1910
1!
1$
0&
#1915
0!
0$
#1920
1!
1$
b000011000 (
1&
#1925
0!
0$
#1930
1!
1$
0&
#1935
0!
0$
#1940
1!
1$
b011100010 (
1&
#1945
0!
0$
#1950
1!
1$
0&
#1955
0!
0$
#1960
1!
1$
b101110011 (
1&
#1965
0!
0$
#1970
1!
1$
0&
#1975
0!
0$
#1980
1!
1$
b000000101 (
1&
#1985
0!
0$
#1990
1!
1$
0&
#1995
0!
0$
#2000
1!
1$
b001001011 (
1&
#2005
0!
0$
#2010
1!
1$
0&
#2015
0!
0$
#2020
1!
1$
b110010010 (
1&
#2025
0!
0$
#2030
1!
1$
0&
#2035
0!
0$
#2040
1!
1$
b010011110 (
1&
#2045
0!
0$
#2050
1!
1$
0&
#2055
0!
0$
#2060
1!
1$
b110000101 (
1&
#2065
0!
0$
#2070
1!
1$
0&
#2075
0!
0$
#2080
1!
1$
b010111000 (
1&
#2085
0!
0$
#2090
1!
1$
0&
#2095
0!
0$
#2100
1!
1$
b100011000 (
1&
#2105
0!
0$
#2110
1!
1$
0&
#2115
0!
0$
#2120
1!
1$
b110011111 (
1&
#2125
0!
0$
#2130
1!
1$
0&
#2135
0!
0$
#2140
1!
1$
b111100101 (
1&
#2145
0!
0$
#2150
1!
1$
0&
#2155
0!
0$
#2160
1!
1$
b001000000 (
1&
#2165
0!
0$
#2170
1!
1$
0&
#2175
0!
0$
#2180
1!
1$
b011010000 (
1&
#2185
0!
0$
#2190
1!
1$
0&
#2195
0!
0$
#2200
1!
1$
b001100111 (
1&
#2205
0!
0$
#2210
1!
1$
0&
#2215
0!
0$
#2220
1!
1$
b110011001 (
1&
#2225
0!
0$
#2230
1!
1$
0&
#2235
0!
0$
#2240
1!
1$
b011001100 (
1&
#2245
0!
0$
#2250
1!
1$
0&
#2255
0!
0$
#2260
1!
1$
b111010000 (
1&
#2265
0!
0$
#2270
1!
1$
0&
#2275
0!
0$
#2280
1!
1$
b010111011 (
1&
#2285
0!
0$
#2290
1!
1$
0&
#2295
0!
0$
#2300
1!
1$
b011011001 (
1&
#2305
0!
0$
#2310
1!
1$
0&
#2315
0!
0$
#2320
1!
1$
b001000001 (
1&
#2325
0!
0$
#2330
1!
1$
0&
#2335
0!
0$
#2340
1!
1$
b010000111 (
1&
#2345
0!
0$
#2350
1!
1$
0&
#2355
0!
0$
#2360
1!
1$
b001111101 (
1&
#2365
0!
0$
#2370
1!
1$
0&
#2375
0!
0$
#2380
1!
1$
b111001100 (
1&
#2385
0!
0$
#2390
1!
1$
0&
#2395
0!
0$
#2400
1!
1$
b000101100 (
1&
#2405
0!
0$
#2410
1!
1$
0&
#2415
0!
0$
#2420
1!
1$
b000100011 (
1&
#2425
0!
0$
#2430
1!
1$
0&
#2435
0!
0$
#2440
1!
1$
b111001101 (
1&
#2445
0!
0$
#2450
1!
1$
0&
#2455
0!
0$
#2460
1!
1$
b100100000 (
1&
#2465
0!
0$
#2470
1!
1$
0&
#2475
0!
0$
#2480
1!
1$
b011001111 (
1&
#2485
0!
0$
#2490
1!
1$
0&
#2495
0!
0$
#2500
1!
1$
b011111100 (
1&
#2505
0!
0$
#2510
1!
1$
0&
#2515
0!
0$
#2520
1!
1$
b111111000 (
1&
#2525
0!
0$
#2530
1!
1$
0&
#2535
0!
0$
#2540
1!
1$
b011100111 (
1&
#2545
0!
0$
#2550
1!
1$
0&
#2555
0!
0$
#2560
1!
1$
b101110000 (
1&
#2565
0!
0$
#2570
1!
1$
0&
#2575
0!
0$
#2580
1!
1$
b100100110 (
1&
#2585
0!
0$
#2590
1!
1$
0&
#2595
0!
0$
#2600
1!
1$
b110111101 (
1&
#2605
0!
0$
#2610
1!
1$
0&
#2615
0!
0$
#2620
1!
1$
b100000111 (
1&
#2625
0!
0$
#2630
1!
1$
0&
#2635
0!
0$
#2640
1!
1$
b010111011 (
1&
#2645
0!
0$
#2650
1!
1$
0&
#2655
0!
0$
#2660
1!
1$
b001000000 (
1&
#2665
0!
0$
#2670
1!
1$
0&
#2675
0!
0$
#2680
1!
1$
b001010101 (
1&
#2685
0!
0$
#2690
1!
1$
0&
#2695
0!
0$
#2700
1!
1$
b101011101 (
1&
#2705
0!
0$
#2710
1!
1$
0&
#2715
0!
0$
#2720
1!
1$
b010100001 (
1&
#2725
0!
0$
#2730
1!
1$
0&
#2735
0!
0$
#2740
1!
1$
b111111010 (
1&
#2745
0!
0$
#2750
1!
1$
0&
#2755
0!
0$
#2760
1!
1$
b101111000 (
1&
#2765
0!
0$
#2770
1!
1$
0&
#2775
0!
0$
#2780
1!
1$
b011011000 (
1&
#2785
0!
0$
#2790
1!
1$
0&
#2795
0!
0$
#2800
1!
1$
b110110011 (
1&
#2805
0!
0$
#2810
1!
1$
0&
#2815
0!
0$
#2820
1!
1$
b011101101 (
1&
#2825
0!
0$
#2830
1!
1$
0&
#2835
0!
0$
#2840
1!
1$
b011110011 (
1&
#2845
0!
0$
#2850
1!
1$
0&
#2855
0!
0$
#2860
1!
1$
b000001111 (
1&
#2865
0!
0$
#2870
1!
1$
0&
#2875
0!
0$
#2880
1!
1$
b001010001 (
1&
#2885
0!
0$
#2890
1!
1$
0&
#2895
0!
0$
#2900
1!
1$
b100001101 (
1&
#2905
0!
0$
#2910
1!
1$
0&
#2915
0!
0$
#2920
1!
1$
b110011010 (
1&
#2925
0!
0$
#2930
1!
1$
0&
#2935
0!
0$
#2940
1!
1$
b110010101 (
1&
#2945
0!
0$
#2950
1!
1$
0&
#2955
0!
0$
#2960
1!
1$
b000101001 (
1&
#2965
0!
0$
#2970
1!
1$
0&
#2975
0!
0$
#2980
1!
1$
b000100010 (
1&
#2985
0!
0$
#2990
1!
1$
0&
#2995
0!
0$
#3000
1!
1$
b010011110 (
1&
#3005
0!
0$
#3010
1!
1$
0&
#3015
0!
0$
#3020
1!
1$
b101001111 (
1&
#3025
0!
0$
#3030
1!
1$
0&
#3035
0!
0$
#3040
1!
1$
b010010011 (
1&
#3045
0!
0$
#3050
1!
1$
0&
#3055
0!
0$
#3060
1!
1$
b100111111 (
1&
#3065
0!
0$
#3070
1!
1$
0&
#3075
0!
0$
#3080
1!
1$
b000010110 (
1&
#3085
0!
0$
#3090
1!
1$
0&
#3095
0!
0$
#3100
1!
1$
b001000101 (
1&
#3105
0!
0$
#3110
1!
1$
0&
#3115
0!
0$
#3120
1!
1$
b100100101 (
1&
#3125
0!
0$
#3130
1!
1$
0&
#3135
0!
0$
#3140
1!
1$
b100010000 (
1&
#3145
0!
0$
#3150
1!
1$
0&
#3155
0!
0$
#3160
1!
1$
b101100001 (
1&
#3165
0!
0$
#3170
1!
1$
0&
#3175
0!
0$
#3180
1!
1$
b100101110 (
1&
#3185
0!
0$
#3190
1!
1$
0&
#3195
0!
0$
#3200
1!
1$
b011000000 (
1&
#3205
0!
0$
#3210
1!
1$
0&
#3215
0!
0$
#3220
1!
1$
b011001111 (
1&
#3225
0!
0$
#3230
1!
1$
0&
#3235
0!
0$
#3240
1!
1$
b000111110 (
1&
#3245
0!
0$
#3250
1!
1$
0&
#3255
0!
0$
#3260
1!
1$
b001001101 (
1&
#3265
0!
0$
#3270
1!
1$
0&
#3275
0!
0$
#3280
1!
1$
b001010111 (
1&
#3285
0!
0$
#3290
1!
1$
0&
#3295
0!
0$
#3300
1!
1$
b001111011 (
1&
#3305
0!
0$
#3310
1!
1$
0&
#3315
0!
0$
#3320
1!
1$
b011100111 (
1&
#3325
0!
0$
#3330
1!
1$
0&
#3335
0!
0$
#3340
1!
1$
b100100110 (
1&
#3345
0!
0$
#3350
1!
1$
0&
#3355
0!
0$
#3360
1!
1$
b111101011 (
1&
#3365
0!
0$
#3370
1!
1$
0&
#3375
0!
0$
#3380
1!
1$
b000110000 (
1&
#3385
0!
0$
#3390
1!
1$
0&
#3395
0!
0$
#3400
1!
1$
b100101000 (
1&
#3405
0!
0$
#3410
1!
1$
0&
#3415
0!
0$
#3420
1!
1$
b101000111 (
1&
#3425
0!
0$
#3430
1!
1$
0&
#3435
0!
0$
#3440
1!
1$
b000110010 (
1&
#3445
0!
0$
#3450
1!
1$
0&
#3455
0!
0$
#3460
1!
1$
b110001100 (
1&
#3465
0!
0$
#3470
1!
1$
0&
#3475
0!
0$
#3480
1!
1$
b011001010 (
1&
#3485
0!
0$
#3490
1!
1$
0&
#3495
0!
0$
#3500
1!
1$
b110001010 (
1&
#3505
0!
0$
#3510
1!
1$
0&
#3515
0!
0$
#3520
1!
1$
b111101001 (
1&
#3525
0!
0$
#3530
1!
1$
0&
#3535
0!
0$
#3540
1!
1$
b000100000 (
1&
#3545
0!
0$
#3550
1!
1$
0&
#3555
0!
0$
#3560
1!
1$
b000001110 (
1&
#3565
0!
0$
#3570
1!
1$
0&
#3575
0!
0$
#3580
1!
1$
b011011100 (
1&
#3585
0!
0$
#3590
1!
1$
0&
#3595
0!
0$
#3600
1!
1$
b010000111 (
1&
#3605
0!
0$
#3610
1!
1$
0&
#3615
0!
0$
#3620
1!
1$
b000000100 (
1&
#3625
0!
0$
#3630
1!
1$
0&
#3635
0!
0$
#3640
1!
1$
b001100001 (
1&
#3645
0!
0$
#3650
1!
1$
0&
#3655
0!
0$
#3660
1!
1$
b100101111 (
1&
#3665
0!
0$
#3670
1!
1$
0&
#3675
0!
0$
#3680
1!
1$
b111010111 (
1&
#3685
0!
0$
#3690
1!
1$
0&
#3695
0!
0$
#3700
1!
1$
b001100111 (
1&
#3705
0!
0$
#3710
1!
1$
0&
#3715
0!
0$
#3720
1!
1$
b011110100 (
1&
#3725
0!
0$
#3730
1!
1$
0&
#3735
0!
0$
#3740
1!
1$
b011010110 (
1&
#3745
0!
0$
#3750
1!
1$
0&
#3755
0!
0$
#3760
1!
1$
b011100110 (
1&
#3765
0!
0$
#3770
1!
1$
0&
#3775
0!
0$
#3780
1!
1$
b100110110 (
1&
#3785
0!
0$
#3790
1!
1$
0&
#3795
0!
0$
#3800
1!
1$
b100101111 (
1&
#3805
0!
0$
#3810
1!
1$
0&
#3815
0!
0$
#3820
1!
1$
b010111100 (
1&
#3825
0!
0$
#3830
1!
1$
0&
#3835
0!
0$
#3840
1!
1$
b100110100 (
1&
#3845
0!
0$
#3850
1!
1$
0&
#3855
0!
0$
#3860
1!
1$
b111010110 (
1&
#3865
0!
0$
#3870
1!
1$
0&
#3875
0!
0$
#3880
1!
1$
b101000011 (
1&
#3885
0!
0$
#3890
1!
1$
0&
#3895
0!
0$
#3900
1!
1$
b001011000 (
1&
#3905
0!
0$
#3910
1!
1$
0&
#3915
0!
0$
#3920
1!
1$
b010111010 (
1&
#3925
0!
0$
#3930
1!
1$
0&
#3935
0!
0$
#3940
1!
1$
b010100110 (
1&
#3945
0!
0$
#3950
1!
1$
0&
#3955
0!
0$
#3960
1!
1$
b111110000 (
1&
#3965
0!
0$
#3970
1!
1$
0&
#3975
0!
0$
#3980
1!
1$
b011010011 (
1&
#3985
0!
0$
#3990
1!
1$
0&
#3995
0!
0$
#4000
1!
1$
b101111111 (
1&
#4005
0!
0$
#4010
1!
1$
0&
#4015
0!
0$
#4020
1!
1$
b111100100 (
1&
#4025
0!
0$
#4030
1!
1$
0&
#4035
0!
0$
#4040
1!
1$
b100101000 (
1&
#4045
0!
0$
#4050
1!
1$
0&
#4055
0!
0$
#4060
1!
1$
b101000101 (
1&
#4065
0!
0$
#4070
1!
1$
0&
#4075
0!
0$
#4080
1!
1$
b111111001 (
1&
#4085
0!
0$
#4090
1!
1$
0&
#4095
0!
0$
#4100
1!
1$
b111001111 (
1&
#4105
0!
0$
#4110
1!
1$
0&
#4115
0!
0$
#4120
1!
1$
b010101110 (
1&
#4125
0!
0$
#4130
1!
1$
0&
#4135
0!
0$
#4140
1!
1$
b111010001 (
1&
#4145
0!
0$
#4150
1!
1$
0&
#4155
0!
0$
#4160
1!
1$
b010100101 (
1&
#4165
0!
0$
#4170
1!
1$
0&
#4175
0!
0$
#4180
1!
1$
b000111010 (
1&
#4185
0!
0$
#4190
1!
1$
0&
#4195
0!
0$
#4200
1!
1$
b111101110 (
1&
#4205
0!
0$
#4210
1!
1$
0&
#4215
0!
0$
#4220
1!
1$
b010111011 (
1&
#4225
0!
0$
#4230
1!
1$
0&
#4235
0!
0$
#4240
1!
1$
b100011100 (
1&
#4245
0!
0$
#4250
1!
1$
0&
#4255
0!
0$
#4260
1!
1$
b110000000 (
1&
#4265
0!
0$
#4270
1!
1$
0&
#4275
0!
0$
#4280
1!
1$
b100011001 (
1&
#4285
0!
0$
#4290
1!
1$
0&
#4295
0!
0$
#4300
1!
1$
b111011001 (
1&
#4305
0!
0$
#4310
1!
1$
0&
#4315
0!
0$
#4320
1!
1$
b111000000 (
1&
#4325
0!
0$
#4330
1!
1$
0&
#4335
0!
0$
#4340
1!
1$
b110000100 (
1&
#4345
0!
0$
#4350
1!
1$
0&
#4355
0!
0$
#4360
1!
1$
b001110010 (
1&
#4365
0!
0$
#4370
1!
1$
0&
#4375
0!
0$
#4380
1!
1$
b001111111 (
1&
#4385
0!
0$
#4390
1!
1$
0&
#4395
0!
0$
#4400
1!
1$
b000011010 (
1&
#4405
0!
0$
#4410
1!
1$
0&
#4415
0!
0$
#4420
1!
1$
b100001001 (
1&
#4425
0!
0$
#4430
1!
1$
0&
#4435
0!
0$
#4440
1!
1$
b000101100 (
1&
#4445
0!
0$
#4450
1!
1$
0&
#4455
0!
0$
#4460
1!
1$
b011010000 (
1&
#4465
0!
0$
#4470
1!
1$
0&
#4475
0!
0$
#4480
1!
1$
b100001111 (
1&
#4485
0!
0$
#4490
1!
1$
0&
#4495
0!
0$
#4500
1!
1$
b111100100 (
1&
#4505
0!
0$
#4510
1!
1$
0&
#4515
0!
0$
#4520
1!
1$
b100110110 (
1&
#4525
0!
0$
#4530
1!
1$
0&
#4535
0!
0$
#4540
1!
1$
b010000011 (
1&
#4545
0!
0$
#4550
1!
1$
0&
#4555
0!
0$
#4560
1!
1$
b101000100 (
1&
#4565
0!
0$
#4570
1!
1$
0&
#4575
0!
0$
#4580
1!
1$
b000001001 (
1&
#4585
0!
0$
#4590
1!
1$
0&
#4595
0!
0$
#4600
1!
1$
b000011010 (
1&
#4605
0!
0$
#4610
1!
1$
0&
#4615
0!
0$
#4620
1!
1$
b001010110 (
1&
#4625
0!
0$
#4630
1!
1$
0&
#4635
0!
0$
#4640
1!
1$
b010011011 (
1&
#4645
0!
0$
#4650
1!
1$
0&
#4655
0!
0$
#4660
1!
1$
b110001000 (
1&
#4665
0!
0$
#4670
1!
1$
0&
#4675
0!
0$
#4680
1!
1$
b010010010 (
1&
#4685
0!
0$
#4690
1!
1$
0&
#4695
0!
0$
#4700
1!
1$
b110111101 (
1&
#4705
0!
0$
#4710
1!
1$
0&
#4715
0!
0$
